{
	"info": {
		"_postman_id": "6eaa35f3-d893-4556-baea-2cf2d1c94452",
		"name": "Broader Horizon",
		"description": "A collection of apis used by Broader Horizon to get data for recipes, ingredients and cuisines",
		"schema": "https://schema.getpostman.com/json/collection/v2.1.0/collection.json"
	},
	"item": [
		{
			"name": "Get all Recipes",
			"event": [
				{
					"listen": "test",
					"script": {
						"exec": [
							"pm.test(\"Status code is 200\", function(){\r",
							"    pm.response.to.have.status(200);\r",
							"});"
						],
						"type": "text/javascript"
					}
				}
			],
			"request": {
				"method": "GET",
				"header": [],
				"url": {
					"raw": "https://api.broaderhorizons.me/api/recipes",
					"protocol": "https",
					"host": [
						"api",
						"broaderhorizons",
						"me"
					],
					"path": [
						"api",
						"recipes"
					]
				},
				"description": "Returns the details of all recipes"
			},
			"response": [
				{
					"name": "Get all Recipes",
					"originalRequest": {
						"method": "GET",
						"header": [],
						"url": {
							"raw": "https://api.broaderhorizons.me/api/recipes",
							"protocol": "https",
							"host": [
								"api",
								"broaderhorizons",
								"me"
							],
							"path": [
								"api",
								"recipes"
							]
						}
					},
					"_postman_previewlanguage": null,
					"header": null,
					"cookie": [],
					"body": "{\n      \"uid\": 24160,\n      \"name\": \"Aam Panna\",\n      \"description\": \"Aam Panna or Aam Jhoras is an Indian drink renowned for its heat-resistant properties. It is made from raw mangoes and is yellow to very light green in color, and is consumed as a tasty and healthy beverage to fight against the intense Indian summer heat. In most instances, mint leaves are added which enhances the green color.\",\n      \"servings\": 6.0,\n      \"ingredients\": [\n         \"mango\",\n         \"mint leaves\",\n         \"water\",\n         \"sugar\",\n         \"lemon\",\n         \"cumin\",\n         \"salt\",\n         \"salt\"\n      ],\n      \"is_vegetarian\": true,\n      \"is_vegan\": true,\n      \"is_dairyfree\": true,\n      \"calories\": 312.30433333355944,\n      \"prep_time\": 0.0,\n      \"glycemic_index\": 46.046967727349795,\n      \"nutrition_info\": {\n         \"ENERC_KCAL\": {\n            \"label\": \"Energy\",\n            \"quantity\": 1873.8260000013568,\n            \"unit\": \"kcal\"\n         },\n         \"FAT\": {\n            \"label\": \"Fat\",\n            \"quantity\": 6.240860000022512,\n            \"unit\": \"g\"\n         },\n         \"FASAT\": {\n            \"label\": \"Saturated\",\n            \"quantity\": 1.35547400000589,\n            \"unit\": \"g\"\n         },\n         \"FAMS\": {\n            \"label\": \"Monounsaturated\",\n            \"quantity\": 2.041660000000771,\n            \"unit\": \"g\"\n         },\n         \"FAPU\": {\n            \"label\": \"Polyunsaturated\",\n            \"quantity\": 1.61799400001215,\n            \"unit\": \"g\"\n         },\n         \"CHOCDF\": {\n            \"label\": \"Carbs\",\n            \"quantity\": 472.34352000025933,\n            \"unit\": \"g\"\n         },\n         \"FIBTG\": {\n            \"label\": \"Fiber\",\n            \"quantity\": 30.468200000209695,\n            \"unit\": \"g\"\n         },\n         \"SUGAR\": {\n            \"label\": \"Sugars\",\n            \"quantity\": 437.54449999999997,\n            \"unit\": \"g\"\n         },\n         \"SUGAR.added\": {\n            \"label\": \"Sugars, added\",\n            \"quantity\": 299.4,\n            \"unit\": \"g\"\n         },\n         \"PROCNT\": {\n            \"label\": \"Protein\",\n            \"quantity\": 15.586980000101457,\n            \"unit\": \"g\"\n         },\n         \"CHOLE\": {\n            \"label\": \"Cholesterol\",\n            \"quantity\": 0.0,\n            \"unit\": \"mg\"\n         },\n         \"NA\": {\n            \"label\": \"Sodium\",\n            \"quantity\": 5917.416408007171,\n            \"unit\": \"mg\"\n         },\n         \"CA\": {\n            \"label\": \"Calcium\",\n            \"quantity\": 563.7504333048661,\n            \"unit\": \"mg\"\n         },\n         \"MG\": {\n            \"label\": \"Magnesium\",\n            \"quantity\": 245.07368472272316,\n            \"unit\": \"mg\"\n         },\n         \"K\": {\n            \"label\": \"Potassium\",\n            \"quantity\": 2677.725477780367,\n            \"unit\": \"mg\"\n         },\n         \"FE\": {\n            \"label\": \"Iron\",\n            \"quantity\": 26.58539595822357,\n            \"unit\": \"mg\"\n         },\n         \"ZN\": {\n            \"label\": \"Zinc\",\n            \"quantity\": 3.2695284721116518,\n            \"unit\": \"mg\"\n         },\n         \"P\": {\n            \"label\": \"Phosphorus\",\n            \"quantity\": 279.67800000185025,\n            \"unit\": \"mg\"\n         },\n         \"VITA_RAE\": {\n            \"label\": \"Vitamin A\",\n            \"quantity\": 913.5400000062601,\n            \"unit\": \"\\u00b5g\"\n         },\n         \"VITC\": {\n            \"label\": \"Vitamin C\",\n            \"quantity\": 419.32260000041015,\n            \"unit\": \"mg\"\n         },\n         \"THIA\": {\n            \"label\": \"Thiamin (B1)\",\n            \"quantity\": 0.4718480000024054,\n            \"unit\": \"mg\"\n         },\n         \"RIBF\": {\n            \"label\": \"Riboflavin (B2)\",\n            \"quantity\": 0.7815340000053966,\n            \"unit\": \"mg\"\n         },\n         \"NIA\": {\n            \"label\": \"Niacin (B3)\",\n            \"quantity\": 8.669470000029234,\n            \"unit\": \"mg\"\n         },\n         \"VITB6A\": {\n            \"label\": \"Vitamin B6\",\n            \"quantity\": 1.5428620000048723,\n            \"unit\": \"mg\"\n         },\n         \"FOLDFE\": {\n            \"label\": \"Folate equivalent (total)\",\n            \"quantity\": 628.320000003238,\n            \"unit\": \"\\u00b5g\"\n         },\n         \"FOLFD\": {\n            \"label\": \"Folate (food)\",\n            \"quantity\": 628.320000003238,\n            \"unit\": \"\\u00b5g\"\n         },\n         \"FOLAC\": {\n            \"label\": \"Folic acid\",\n            \"quantity\": 0.0,\n            \"unit\": \"\\u00b5g\"\n         },\n         \"VITB12\": {\n            \"label\": \"Vitamin B12\",\n            \"quantity\": 0.0,\n            \"unit\": \"\\u00b5g\"\n         },\n         \"VITD\": {\n            \"label\": \"Vitamin D\",\n            \"quantity\": 0.0,\n            \"unit\": \"\\u00b5g\"\n         },\n         \"TOCPHA\": {\n            \"label\": \"Vitamin E\",\n            \"quantity\": 9.22686,\n            \"unit\": \"mg\"\n         },\n         \"VITK1\": {\n            \"label\": \"Vitamin K\",\n            \"quantity\": 42.2268,\n            \"unit\": \"\\u00b5g\"\n         },\n         \"WATER\": {\n            \"label\": \"Water\",\n            \"quantity\": 2041.6800569467941,\n            \"unit\": \"g\"\n         }\n      },\n      \"health_labels\": [\n         \"Vegan\",\n         \"Vegetarian\",\n         \"Pescatarian\",\n         \"Dairy-Free\",\n         \"Gluten-Free\",\n         \"Wheat-Free\",\n         \"Egg-Free\",\n         \"Peanut-Free\",\n         \"Tree-Nut-Free\",\n         \"Soy-Free\",\n         \"Fish-Free\",\n         \"Shellfish-Free\",\n         \"Pork-Free\",\n         \"Red-Meat-Free\",\n         \"Crustacean-Free\",\n         \"Celery-Free\",\n         \"Mustard-Free\",\n         \"Sesame-Free\",\n         \"Lupine-Free\",\n         \"Mollusk-Free\",\n         \"Alcohol-Free\",\n         \"No oil added\",\n         \"Kosher\"\n      ]\n   }"
				}
			]
		},
		{
			"name": "Get Recipes by id",
			"event": [
				{
					"listen": "test",
					"script": {
						"exec": [
							"pm.test(\"Get recipes by id return the correct item\", function(){\r",
							"    var recipes = pm.response.json();\r",
							"    pm.expect(recipes.name).to.eql(\"Aam Panna\");\r",
							"});"
						],
						"type": "text/javascript"
					}
				}
			],
			"request": {
				"method": "GET",
				"header": [],
				"url": {
					"raw": "https://api.broaderhorizons.me/api/recipe/id=2",
					"protocol": "https",
					"host": [
						"api",
						"broaderhorizons",
						"me"
					],
					"path": [
						"api",
						"recipe",
						"id=2"
					]
				},
				"description": "Returns the details of a specific recipe with the name as the identifier"
			},
			"response": [
				{
					"name": "Get Recipe by id",
					"originalRequest": {
						"method": "GET",
						"header": [],
						"url": {
							"raw": "https://broaderhorizons.me/api/recipes?name=Alfredo",
							"protocol": "https",
							"host": [
								"broaderhorizons",
								"me"
							],
							"path": [
								"api",
								"recipes"
							],
							"query": [
								{
									"key": "name",
									"value": "Alfredo"
								}
							]
						}
					},
					"_postman_previewlanguage": null,
					"header": null,
					"cookie": [],
					"body": "{\n      \"uid\": 24160,\n      \"name\": \"Aam Panna\",\n      \"description\": \"Aam Panna or Aam Jhoras is an Indian drink renowned for its heat-resistant properties. It is made from raw mangoes and is yellow to very light green in color, and is consumed as a tasty and healthy beverage to fight against the intense Indian summer heat. In most instances, mint leaves are added which enhances the green color.\",\n      \"servings\": 6.0,\n      \"ingredients\": [\n         \"mango\",\n         \"mint leaves\",\n         \"water\",\n         \"sugar\",\n         \"lemon\",\n         \"cumin\",\n         \"salt\",\n         \"salt\"\n      ],\n      \"is_vegetarian\": true,\n      \"is_vegan\": true,\n      \"is_dairyfree\": true,\n      \"calories\": 312.30433333355944,\n      \"prep_time\": 0.0,\n      \"glycemic_index\": 46.046967727349795,\n      \"nutrition_info\": {\n         \"ENERC_KCAL\": {\n            \"label\": \"Energy\",\n            \"quantity\": 1873.8260000013568,\n            \"unit\": \"kcal\"\n         },\n         \"FAT\": {\n            \"label\": \"Fat\",\n            \"quantity\": 6.240860000022512,\n            \"unit\": \"g\"\n         },\n         \"FASAT\": {\n            \"label\": \"Saturated\",\n            \"quantity\": 1.35547400000589,\n            \"unit\": \"g\"\n         },\n         \"FAMS\": {\n            \"label\": \"Monounsaturated\",\n            \"quantity\": 2.041660000000771,\n            \"unit\": \"g\"\n         },\n         \"FAPU\": {\n            \"label\": \"Polyunsaturated\",\n            \"quantity\": 1.61799400001215,\n            \"unit\": \"g\"\n         },\n         \"CHOCDF\": {\n            \"label\": \"Carbs\",\n            \"quantity\": 472.34352000025933,\n            \"unit\": \"g\"\n         },\n         \"FIBTG\": {\n            \"label\": \"Fiber\",\n            \"quantity\": 30.468200000209695,\n            \"unit\": \"g\"\n         },\n         \"SUGAR\": {\n            \"label\": \"Sugars\",\n            \"quantity\": 437.54449999999997,\n            \"unit\": \"g\"\n         },\n         \"SUGAR.added\": {\n            \"label\": \"Sugars, added\",\n            \"quantity\": 299.4,\n            \"unit\": \"g\"\n         },\n         \"PROCNT\": {\n            \"label\": \"Protein\",\n            \"quantity\": 15.586980000101457,\n            \"unit\": \"g\"\n         },\n         \"CHOLE\": {\n            \"label\": \"Cholesterol\",\n            \"quantity\": 0.0,\n            \"unit\": \"mg\"\n         },\n         \"NA\": {\n            \"label\": \"Sodium\",\n            \"quantity\": 5917.416408007171,\n            \"unit\": \"mg\"\n         },\n         \"CA\": {\n            \"label\": \"Calcium\",\n            \"quantity\": 563.7504333048661,\n            \"unit\": \"mg\"\n         },\n         \"MG\": {\n            \"label\": \"Magnesium\",\n            \"quantity\": 245.07368472272316,\n            \"unit\": \"mg\"\n         },\n         \"K\": {\n            \"label\": \"Potassium\",\n            \"quantity\": 2677.725477780367,\n            \"unit\": \"mg\"\n         },\n         \"FE\": {\n            \"label\": \"Iron\",\n            \"quantity\": 26.58539595822357,\n            \"unit\": \"mg\"\n         },\n         \"ZN\": {\n            \"label\": \"Zinc\",\n            \"quantity\": 3.2695284721116518,\n            \"unit\": \"mg\"\n         },\n         \"P\": {\n            \"label\": \"Phosphorus\",\n            \"quantity\": 279.67800000185025,\n            \"unit\": \"mg\"\n         },\n         \"VITA_RAE\": {\n            \"label\": \"Vitamin A\",\n            \"quantity\": 913.5400000062601,\n            \"unit\": \"\\u00b5g\"\n         },\n         \"VITC\": {\n            \"label\": \"Vitamin C\",\n            \"quantity\": 419.32260000041015,\n            \"unit\": \"mg\"\n         },\n         \"THIA\": {\n            \"label\": \"Thiamin (B1)\",\n            \"quantity\": 0.4718480000024054,\n            \"unit\": \"mg\"\n         },\n         \"RIBF\": {\n            \"label\": \"Riboflavin (B2)\",\n            \"quantity\": 0.7815340000053966,\n            \"unit\": \"mg\"\n         },\n         \"NIA\": {\n            \"label\": \"Niacin (B3)\",\n            \"quantity\": 8.669470000029234,\n            \"unit\": \"mg\"\n         },\n         \"VITB6A\": {\n            \"label\": \"Vitamin B6\",\n            \"quantity\": 1.5428620000048723,\n            \"unit\": \"mg\"\n         },\n         \"FOLDFE\": {\n            \"label\": \"Folate equivalent (total)\",\n            \"quantity\": 628.320000003238,\n            \"unit\": \"\\u00b5g\"\n         },\n         \"FOLFD\": {\n            \"label\": \"Folate (food)\",\n            \"quantity\": 628.320000003238,\n            \"unit\": \"\\u00b5g\"\n         },\n         \"FOLAC\": {\n            \"label\": \"Folic acid\",\n            \"quantity\": 0.0,\n            \"unit\": \"\\u00b5g\"\n         },\n         \"VITB12\": {\n            \"label\": \"Vitamin B12\",\n            \"quantity\": 0.0,\n            \"unit\": \"\\u00b5g\"\n         },\n         \"VITD\": {\n            \"label\": \"Vitamin D\",\n            \"quantity\": 0.0,\n            \"unit\": \"\\u00b5g\"\n         },\n         \"TOCPHA\": {\n            \"label\": \"Vitamin E\",\n            \"quantity\": 9.22686,\n            \"unit\": \"mg\"\n         },\n         \"VITK1\": {\n            \"label\": \"Vitamin K\",\n            \"quantity\": 42.2268,\n            \"unit\": \"\\u00b5g\"\n         },\n         \"WATER\": {\n            \"label\": \"Water\",\n            \"quantity\": 2041.6800569467941,\n            \"unit\": \"g\"\n         }\n      },\n      \"health_labels\": [\n         \"Vegan\",\n         \"Vegetarian\",\n         \"Pescatarian\",\n         \"Dairy-Free\",\n         \"Gluten-Free\",\n         \"Wheat-Free\",\n         \"Egg-Free\",\n         \"Peanut-Free\",\n         \"Tree-Nut-Free\",\n         \"Soy-Free\",\n         \"Fish-Free\",\n         \"Shellfish-Free\",\n         \"Pork-Free\",\n         \"Red-Meat-Free\",\n         \"Crustacean-Free\",\n         \"Celery-Free\",\n         \"Mustard-Free\",\n         \"Sesame-Free\",\n         \"Lupine-Free\",\n         \"Mollusk-Free\",\n         \"Alcohol-Free\",\n         \"No oil added\",\n         \"Kosher\"\n      ]\n   }"
				}
			]
		},
		{
			"name": "Get all Ingredients",
			"event": [
				{
					"listen": "test",
					"script": {
						"exec": [
							"pm.test(\"Status code is 200\", function(){\r",
							"    pm.response.to.have.status(200);\r",
							"});"
						],
						"type": "text/javascript"
					}
				}
			],
			"request": {
				"method": "GET",
				"header": [],
				"url": {
					"raw": "https://api.broaderhorizons.me/api/ingredients",
					"protocol": "https",
					"host": [
						"api",
						"broaderhorizons",
						"me"
					],
					"path": [
						"api",
						"ingredients"
					]
				},
				"description": "Returns the details of all ingredients"
			},
			"response": [
				{
					"name": "Get all Ingredients",
					"originalRequest": {
						"method": "GET",
						"header": [],
						"url": {
							"raw": "https://api.broaderhorizons.me/api/ingredients",
							"protocol": "https",
							"host": [
								"api",
								"broaderhorizons",
								"me"
							],
							"path": [
								"api",
								"ingredients"
							]
						}
					},
					"_postman_previewlanguage": null,
					"header": null,
					"cookie": [],
					"body": "{\n      \"uid\": 44871,\n      \"name\": \"apple cider\",\n      \"estimated_cost\": 0.14,\n      \"estimated_cost_unit\": \"US Cents\",\n      \"weight_per_serving\": 1,\n      \"weight_per_serving_unit\": \"g\",\n      \"macronutrients\": {\n         \"percentProtein\": 0.86,\n         \"percentFat\": 2.5,\n         \"percentCarbs\": 96.64\n      },\n      \"nutrition_info\": [\n         {\n            \"title\": \"Vitamin B3\",\n            \"name\": \"Vitamin B3\",\n            \"amount\": 0.0,\n            \"unit\": \"mg\"\n         },\n         {\n            \"title\": \"Folic Acid\",\n            \"name\": \"Folic Acid\",\n            \"amount\": 0.0,\n            \"unit\": \"\\u00b5g\"\n         },\n         {\n            \"title\": \"Iron\",\n            \"name\": \"Iron\",\n            \"amount\": 0.0,\n            \"unit\": \"mg\"\n         },\n         {\n            \"title\": \"Carbohydrates\",\n            \"name\": \"Carbohydrates\",\n            \"amount\": 0.11,\n            \"unit\": \"g\"\n         },\n         {\n            \"title\": \"Vitamin C\",\n            \"name\": \"Vitamin C\",\n            \"amount\": 0.01,\n            \"unit\": \"mg\"\n         },\n         {\n            \"title\": \"Vitamin A\",\n            \"name\": \"Vitamin A\",\n            \"amount\": 0.01,\n            \"unit\": \"IU\"\n         },\n         {\n            \"title\": \"Vitamin B5\",\n            \"name\": \"Vitamin B5\",\n            \"amount\": 0.0,\n            \"unit\": \"mg\"\n         },\n         {\n            \"title\": \"Mono Unsaturated Fat\",\n            \"name\": \"Mono Unsaturated Fat\",\n            \"amount\": 0.0,\n            \"unit\": \"g\"\n         },\n         {\n            \"title\": \"Caffeine\",\n            \"name\": \"Caffeine\",\n            \"amount\": 0.0,\n            \"unit\": \"mg\"\n         },\n         {\n            \"title\": \"Phosphorus\",\n            \"name\": \"Phosphorus\",\n            \"amount\": 0.07,\n            \"unit\": \"mg\"\n         },\n         {\n            \"title\": \"Sodium\",\n            \"name\": \"Sodium\",\n            \"amount\": 0.04,\n            \"unit\": \"mg\"\n         },\n         {\n            \"title\": \"Vitamin D\",\n            \"name\": \"Vitamin D\",\n            \"amount\": 0.0,\n            \"unit\": \"\\u00b5g\"\n         },\n         {\n            \"title\": \"Protein\",\n            \"name\": \"Protein\",\n            \"amount\": 0.0,\n            \"unit\": \"g\"\n         },\n         {\n            \"title\": \"Vitamin B6\",\n            \"name\": \"Vitamin B6\",\n            \"amount\": 0.0,\n            \"unit\": \"mg\"\n         },\n         {\n            \"title\": \"Poly Unsaturated Fat\",\n            \"name\": \"Poly Unsaturated Fat\",\n            \"amount\": 0.0,\n            \"unit\": \"g\"\n         },\n         {\n            \"title\": \"Selenium\",\n            \"name\": \"Selenium\",\n            \"amount\": 0.0,\n            \"unit\": \"\\u00b5g\"\n         },\n         {\n            \"title\": \"Choline\",\n            \"name\": \"Choline\",\n            \"amount\": 0.02,\n            \"unit\": \"mg\"\n         },\n         {\n            \"title\": \"Sugar\",\n            \"name\": \"Sugar\",\n            \"amount\": 0.1,\n            \"unit\": \"g\"\n         },\n         {\n            \"title\": \"Fiber\",\n            \"name\": \"Fiber\",\n            \"amount\": 0.0,\n            \"unit\": \"g\"\n         },\n         {\n            \"title\": \"Vitamin B12\",\n            \"name\": \"Vitamin B12\",\n            \"amount\": 0.0,\n            \"unit\": \"\\u00b5g\"\n         },\n         {\n            \"title\": \"Vitamin B1\",\n            \"name\": \"Vitamin B1\",\n            \"amount\": 0.0,\n            \"unit\": \"mg\"\n         },\n         {\n            \"title\": \"Net Carbohydrates\",\n            \"name\": \"Net Carbohydrates\",\n            \"amount\": 0.11,\n            \"unit\": \"g\"\n         },\n         {\n            \"title\": \"Calories\",\n            \"name\": \"Calories\",\n            \"amount\": 0.46,\n            \"unit\": \"kcal\"\n         },\n         {\n            \"title\": \"Calcium\",\n            \"name\": \"Calcium\",\n            \"amount\": 0.08,\n            \"unit\": \"mg\"\n         },\n         {\n            \"title\": \"Manganese\",\n            \"name\": \"Manganese\",\n            \"amount\": 0.0,\n            \"unit\": \"mg\"\n         },\n         {\n            \"title\": \"Copper\",\n            \"name\": \"Copper\",\n            \"amount\": 0.0,\n            \"unit\": \"mg\"\n         },\n         {\n            \"title\": \"Vitamin B2\",\n            \"name\": \"Vitamin B2\",\n            \"amount\": 0.0,\n            \"unit\": \"mg\"\n         },\n         {\n            \"title\": \"Saturated Fat\",\n            \"name\": \"Saturated Fat\",\n            \"amount\": 0.0,\n            \"unit\": \"g\"\n         },\n         {\n            \"title\": \"Vitamin K\",\n            \"name\": \"Vitamin K\",\n            \"amount\": 0.0,\n            \"unit\": \"\\u00b5g\"\n         },\n         {\n            \"title\": \"Alcohol\",\n            \"name\": \"Alcohol\",\n            \"amount\": 0.0,\n            \"unit\": \"g\"\n         },\n         {\n            \"title\": \"Zinc\",\n            \"name\": \"Zinc\",\n            \"amount\": 0.0,\n            \"unit\": \"mg\"\n         },\n         {\n            \"title\": \"Folate\",\n            \"name\": \"Folate\",\n            \"amount\": 0.0,\n            \"unit\": \"\\u00b5g\"\n         },\n         {\n            \"title\": \"Fat\",\n            \"name\": \"Fat\",\n            \"amount\": 0.0,\n            \"unit\": \"g\"\n         },\n         {\n            \"title\": \"Potassium\",\n            \"name\": \"Potassium\",\n            \"amount\": 1.01,\n            \"unit\": \"mg\"\n         },\n         {\n            \"title\": \"Magnesium\",\n            \"name\": \"Magnesium\",\n            \"amount\": 0.05,\n            \"unit\": \"mg\"\n         },\n         {\n            \"title\": \"Cholesterol\",\n            \"name\": \"Cholesterol\",\n            \"amount\": 0.0,\n            \"unit\": \"mg\"\n         },\n         {\n            \"title\": \"Vitamin E\",\n            \"name\": \"Vitamin E\",\n            \"amount\": 0.0,\n            \"unit\": \"mg\"\n         }\n      ],\n      \"aisle\": \"Beverages\"\n   }\n"
				}
			]
		},
		{
			"name": "Get Ingredient by id",
			"event": [
				{
					"listen": "test",
					"script": {
						"exec": [
							"pm.test(\"Get ingredient by id return the correct item\", function(){\r",
							"    var ingredient = pm.response.json();\r",
							"    pm.expect(ingredient.name).to.eql(\"apple cider\");\r",
							"});"
						],
						"type": "text/javascript"
					}
				}
			],
			"request": {
				"method": "GET",
				"header": [],
				"url": {
					"raw": "https://api.broaderhorizons.me/api/ingredient/id=1",
					"protocol": "https",
					"host": [
						"api",
						"broaderhorizons",
						"me"
					],
					"path": [
						"api",
						"ingredient",
						"id=1"
					]
				},
				"description": "Returns the details of a specific recipe with the name as the identifier"
			},
			"response": [
				{
					"name": "Get Ingredient by id",
					"originalRequest": {
						"method": "GET",
						"header": [],
						"url": {
							"raw": "https://broaderhorizons.me/api/ingredients?name=pasta",
							"protocol": "https",
							"host": [
								"broaderhorizons",
								"me"
							],
							"path": [
								"api",
								"ingredients"
							],
							"query": [
								{
									"key": "name",
									"value": "pasta"
								}
							]
						}
					},
					"_postman_previewlanguage": null,
					"header": null,
					"cookie": [],
					"body": "{\n      \"uid\": 44871,\n      \"name\": \"apple cider\",\n      \"estimated_cost\": 0.14,\n      \"estimated_cost_unit\": \"US Cents\",\n      \"weight_per_serving\": 1,\n      \"weight_per_serving_unit\": \"g\",\n      \"macronutrients\": {\n         \"percentProtein\": 0.86,\n         \"percentFat\": 2.5,\n         \"percentCarbs\": 96.64\n      },\n      \"nutrition_info\": [\n         {\n            \"title\": \"Vitamin B3\",\n            \"name\": \"Vitamin B3\",\n            \"amount\": 0.0,\n            \"unit\": \"mg\"\n         },\n         {\n            \"title\": \"Folic Acid\",\n            \"name\": \"Folic Acid\",\n            \"amount\": 0.0,\n            \"unit\": \"\\u00b5g\"\n         },\n         {\n            \"title\": \"Iron\",\n            \"name\": \"Iron\",\n            \"amount\": 0.0,\n            \"unit\": \"mg\"\n         },\n         {\n            \"title\": \"Carbohydrates\",\n            \"name\": \"Carbohydrates\",\n            \"amount\": 0.11,\n            \"unit\": \"g\"\n         },\n         {\n            \"title\": \"Vitamin C\",\n            \"name\": \"Vitamin C\",\n            \"amount\": 0.01,\n            \"unit\": \"mg\"\n         },\n         {\n            \"title\": \"Vitamin A\",\n            \"name\": \"Vitamin A\",\n            \"amount\": 0.01,\n            \"unit\": \"IU\"\n         },\n         {\n            \"title\": \"Vitamin B5\",\n            \"name\": \"Vitamin B5\",\n            \"amount\": 0.0,\n            \"unit\": \"mg\"\n         },\n         {\n            \"title\": \"Mono Unsaturated Fat\",\n            \"name\": \"Mono Unsaturated Fat\",\n            \"amount\": 0.0,\n            \"unit\": \"g\"\n         },\n         {\n            \"title\": \"Caffeine\",\n            \"name\": \"Caffeine\",\n            \"amount\": 0.0,\n            \"unit\": \"mg\"\n         },\n         {\n            \"title\": \"Phosphorus\",\n            \"name\": \"Phosphorus\",\n            \"amount\": 0.07,\n            \"unit\": \"mg\"\n         },\n         {\n            \"title\": \"Sodium\",\n            \"name\": \"Sodium\",\n            \"amount\": 0.04,\n            \"unit\": \"mg\"\n         },\n         {\n            \"title\": \"Vitamin D\",\n            \"name\": \"Vitamin D\",\n            \"amount\": 0.0,\n            \"unit\": \"\\u00b5g\"\n         },\n         {\n            \"title\": \"Protein\",\n            \"name\": \"Protein\",\n            \"amount\": 0.0,\n            \"unit\": \"g\"\n         },\n         {\n            \"title\": \"Vitamin B6\",\n            \"name\": \"Vitamin B6\",\n            \"amount\": 0.0,\n            \"unit\": \"mg\"\n         },\n         {\n            \"title\": \"Poly Unsaturated Fat\",\n            \"name\": \"Poly Unsaturated Fat\",\n            \"amount\": 0.0,\n            \"unit\": \"g\"\n         },\n         {\n            \"title\": \"Selenium\",\n            \"name\": \"Selenium\",\n            \"amount\": 0.0,\n            \"unit\": \"\\u00b5g\"\n         },\n         {\n            \"title\": \"Choline\",\n            \"name\": \"Choline\",\n            \"amount\": 0.02,\n            \"unit\": \"mg\"\n         },\n         {\n            \"title\": \"Sugar\",\n            \"name\": \"Sugar\",\n            \"amount\": 0.1,\n            \"unit\": \"g\"\n         },\n         {\n            \"title\": \"Fiber\",\n            \"name\": \"Fiber\",\n            \"amount\": 0.0,\n            \"unit\": \"g\"\n         },\n         {\n            \"title\": \"Vitamin B12\",\n            \"name\": \"Vitamin B12\",\n            \"amount\": 0.0,\n            \"unit\": \"\\u00b5g\"\n         },\n         {\n            \"title\": \"Vitamin B1\",\n            \"name\": \"Vitamin B1\",\n            \"amount\": 0.0,\n            \"unit\": \"mg\"\n         },\n         {\n            \"title\": \"Net Carbohydrates\",\n            \"name\": \"Net Carbohydrates\",\n            \"amount\": 0.11,\n            \"unit\": \"g\"\n         },\n         {\n            \"title\": \"Calories\",\n            \"name\": \"Calories\",\n            \"amount\": 0.46,\n            \"unit\": \"kcal\"\n         },\n         {\n            \"title\": \"Calcium\",\n            \"name\": \"Calcium\",\n            \"amount\": 0.08,\n            \"unit\": \"mg\"\n         },\n         {\n            \"title\": \"Manganese\",\n            \"name\": \"Manganese\",\n            \"amount\": 0.0,\n            \"unit\": \"mg\"\n         },\n         {\n            \"title\": \"Copper\",\n            \"name\": \"Copper\",\n            \"amount\": 0.0,\n            \"unit\": \"mg\"\n         },\n         {\n            \"title\": \"Vitamin B2\",\n            \"name\": \"Vitamin B2\",\n            \"amount\": 0.0,\n            \"unit\": \"mg\"\n         },\n         {\n            \"title\": \"Saturated Fat\",\n            \"name\": \"Saturated Fat\",\n            \"amount\": 0.0,\n            \"unit\": \"g\"\n         },\n         {\n            \"title\": \"Vitamin K\",\n            \"name\": \"Vitamin K\",\n            \"amount\": 0.0,\n            \"unit\": \"\\u00b5g\"\n         },\n         {\n            \"title\": \"Alcohol\",\n            \"name\": \"Alcohol\",\n            \"amount\": 0.0,\n            \"unit\": \"g\"\n         },\n         {\n            \"title\": \"Zinc\",\n            \"name\": \"Zinc\",\n            \"amount\": 0.0,\n            \"unit\": \"mg\"\n         },\n         {\n            \"title\": \"Folate\",\n            \"name\": \"Folate\",\n            \"amount\": 0.0,\n            \"unit\": \"\\u00b5g\"\n         },\n         {\n            \"title\": \"Fat\",\n            \"name\": \"Fat\",\n            \"amount\": 0.0,\n            \"unit\": \"g\"\n         },\n         {\n            \"title\": \"Potassium\",\n            \"name\": \"Potassium\",\n            \"amount\": 1.01,\n            \"unit\": \"mg\"\n         },\n         {\n            \"title\": \"Magnesium\",\n            \"name\": \"Magnesium\",\n            \"amount\": 0.05,\n            \"unit\": \"mg\"\n         },\n         {\n            \"title\": \"Cholesterol\",\n            \"name\": \"Cholesterol\",\n            \"amount\": 0.0,\n            \"unit\": \"mg\"\n         },\n         {\n            \"title\": \"Vitamin E\",\n            \"name\": \"Vitamin E\",\n            \"amount\": 0.0,\n            \"unit\": \"mg\"\n         }\n      ],\n      \"aisle\": \"Beverages\"\n   }\n"
				}
			]
		},
		{
			"name": "Get all Cuisines",
			"event": [
				{
					"listen": "test",
					"script": {
						"exec": [
							"pm.test(\"Status code is 200\", function(){\r",
							"    pm.response.to.have.status(200);\r",
							"});"
						],
						"type": "text/javascript"
					}
				}
			],
			"request": {
				"method": "GET",
				"header": [],
				"url": {
					"raw": "https://api.broaderhorizons.me/api/cuisines",
					"protocol": "https",
					"host": [
						"api",
						"broaderhorizons",
						"me"
					],
					"path": [
						"api",
						"cuisines"
					]
				},
				"description": "Returns the details of all cuisines"
			},
			"response": [
				{
					"name": "Get all Cuisines",
					"originalRequest": {
						"method": "GET",
						"header": [],
						"url": {
							"raw": "https://api.broaderhorizons.me/api/cuisines",
							"protocol": "https",
							"host": [
								"api",
								"broaderhorizons",
								"me"
							],
							"path": [
								"api",
								"cuisines"
							]
						}
					},
					"_postman_previewlanguage": null,
					"header": null,
					"cookie": [],
					"body": "{\r\n      \"uid\": 57049,\r\n      \"name\": \"Afghan\",\r\n      \"description\": \"The Cuisine from Afghanistan is largely based upon the nation's chief crops, such as wheat, maize, barley and rice. Accompanying these staples are native fruits and vegetables as well as dairy products such as milk, yogurt and whey. Kabuli Palaw is the national dish of Afghanistan. The nation's culinary specialties reflect its ethnic and geographic diversity. Afghanistan is known for its high quality pomegranates, grapes and sweet football-shaped melons.\\r\\n\\r\\nChaWal = Rice\\r\\nDhaniya = Coriander\\r\\nHaldi = Tumeric\\r\\nLaal Mirch = Red chilli\\r\\nLehsan Adrak = Ginger garlic\\r\\nMoong Daal (Chilky Vali) = Green gram split peas\\r\\nNamak = Salt\\r\\nPalak = Spinch\\r\\nPani = Water\\r\\nPyaaz = Onion\\r\\nQeema = Mince\\r\\nZeera = Cumin\",\r\n      \"country\": \"Afghanistan\",\r\n      \"region\": \"Asia\",\r\n      \"subregion\": \"Southern Asia\",\r\n      \"languages\": [\r\n         \"Dari\",\r\n         \"Pashto\",\r\n         \"Turkmen\"\r\n      ],\r\n      \"avg_pr\": 976.4400583303764,\r\n      \"avg_tas\": 23.50968556123725,\r\n      \"koppen\": \"Csa\"\r\n   }\r\n"
				}
			]
		},
		{
			"name": "Get Cuisine by id",
			"event": [
				{
					"listen": "test",
					"script": {
						"exec": [
							"pm.test(\"Get cuisines by id return the correct item\", function(){\r",
							"    var cuisines = pm.response.json();\r",
							"    pm.expect(cuisines.country).to.eql(\"Afghanistan\");\r",
							"});"
						],
						"type": "text/javascript"
					}
				}
			],
			"request": {
				"method": "GET",
				"header": [],
				"url": {
					"raw": "https://api.broaderhorizons.me/api/cuisines/id=1",
					"protocol": "https",
					"host": [
						"api",
						"broaderhorizons",
						"me"
					],
					"path": [
						"api",
						"cuisines",
						"id=1"
					]
				},
				"description": "Returns the details of a specific cuisine with the name as the identifier"
			},
			"response": [
				{
					"name": "Get Cuisine by id",
					"originalRequest": {
						"method": "GET",
						"header": [],
						"url": {
							"raw": "https://api.broaderhorizons.me/api/cuisines/id=1",
							"protocol": "https",
							"host": [
								"api",
								"broaderhorizons",
								"me"
							],
							"path": [
								"api",
								"cuisines",
								"id=1"
							]
						}
					},
					"_postman_previewlanguage": null,
					"header": null,
					"cookie": [],
					"body": "{\r\n      \"uid\": 57049,\r\n      \"name\": \"Afghan\",\r\n      \"description\": \"The Cuisine from Afghanistan is largely based upon the nation's chief crops, such as wheat, maize, barley and rice. Accompanying these staples are native fruits and vegetables as well as dairy products such as milk, yogurt and whey. Kabuli Palaw is the national dish of Afghanistan. The nation's culinary specialties reflect its ethnic and geographic diversity. Afghanistan is known for its high quality pomegranates, grapes and sweet football-shaped melons.\\r\\n\\r\\nChaWal = Rice\\r\\nDhaniya = Coriander\\r\\nHaldi = Tumeric\\r\\nLaal Mirch = Red chilli\\r\\nLehsan Adrak = Ginger garlic\\r\\nMoong Daal (Chilky Vali) = Green gram split peas\\r\\nNamak = Salt\\r\\nPalak = Spinch\\r\\nPani = Water\\r\\nPyaaz = Onion\\r\\nQeema = Mince\\r\\nZeera = Cumin\",\r\n      \"country\": \"Afghanistan\",\r\n      \"region\": \"Asia\",\r\n      \"subregion\": \"Southern Asia\",\r\n      \"languages\": [\r\n         \"Dari\",\r\n         \"Pashto\",\r\n         \"Turkmen\"\r\n      ],\r\n      \"avg_pr\": 976.4400583303764,\r\n      \"avg_tas\": 23.50968556123725,\r\n      \"koppen\": \"Csa\"\r\n   }\r\n"
				}
			]
		}
	]
}